Hypothesis Tests & Probability - Homework
…
Calculate the Null Distribution:

null_distribution_all_animals <- msleep %>% 
  specify(response = sleep_total) %>% 
  hypothesise(null = "point", mu = 7) %>% 
  generate(reps = 10000, type = "bootstrap") %>% 
  calculate(stat = "mean")

null_distribution_all_animals

## # A tibble: 10,000 x 2
##    replicate  stat
##        <int> <dbl>
##  1         1  7.24
##  2         2  6.39
##  3         3  7.93
##  4         4  6.40
##  5         5  7.59
##  6         6  6.92
##  7         7  6.65
##  8         8  6.69
##  9         9  6.31
## 10        10  6.71
## #  with 9,990 more rows
…
Null Distribution:

null_distribution_herbivore_omnivore  <- msleep_herbivore_omnivore  %>% 
  specify(sleep_total ~ vore) %>% 
  hypothesise(null = "independence") %>% 
  generate(reps = 10000, type = "permute") %>% 
  calculate(stat = "diff in means", order = c("omni", "herbi"))

null_distribution_herbivore_omnivore

## # A tibble: 10,000 x 2
##    replicate    stat
##        <int>   <dbl>
##  1         1 -0.445 
##  2         2  0.0425
##  3         3 -1.26  
##  4         4  0.286 
##  5         5  2.08  
##  6         6  0.676 
##  7         7  2.29  
##  8         8 -0.721 
##  9         9  0.473 
## 10        10  1.76  
## #  with 9,990 more rows
…
Null Hypothesis = H0: prop_dom_animals = 5%

Alternative Hypothesis: Ha: prop_dom_animals != 5%

alpha = 1%

Proportion:

msleep_prop_dom <- msleep %>% 
  mutate(domesticated_flag = ifelse(conservation == "domesticated", TRUE, FALSE)) 

msleep_prop_dom

## # A tibble: 83 x 12
##    name  genus vore  order conservation sleep_total sleep_rem sleep_cycle awake
##    <chr> <chr> <chr> <chr> <chr>              <dbl>     <dbl>       <dbl> <dbl>
##  1 Chee Acin carni Carn lc                  12.1      NA        NA      11.9
##  2 Owl  Aotus omni  Prim <NA>                17         1.8      NA       7  
##  3 Moun Aplo herbi Rode nt                  14.4       2.4      NA       9.6
##  4 Grea Blar omni  Sori lc                  14.9       2.3       0.133   9.1
##  5 Cow   Bos   herbi Arti domesticated         4         0.7       0.667  20  
##  6 Thre Brad herbi Pilo <NA>                14.4       2.2       0.767   9.6
##  7 Nort Call carni Carn vu                   8.7       1.4       0.383  15.3
##  8 Vesp Calo <NA>  Rode <NA>                 7        NA        NA      17  
##  9 Dog   Canis carni Carn domesticated        10.1       2.9       0.333  13.9
## 10 Roe  Capr herbi Arti lc                   3        NA        NA      21  
## #  with 73 more rows, and 3 more variables: brainwt <dbl>, bodywt <dbl>,
## #   domesticated_flag <lgl>
…
Null distribution:

null_distribution_dom <- msleep_prop_dom %>% 
  specify(response = domesticated_flag, success = "TRUE") %>% 
  hypothesise(null = "point", p = 0.05) %>% 
  generate(reps = 10000, type = "simulate") %>% 
  calculate(stat = "prop")

## Warning: Removed 29 rows containing missing values.

null_distribution_dom

## # A tibble: 10,000 x 2
##    replicate   stat
##    <fct>      <dbl>
##  1 1         0.0185
##  2 2         0.0185
##  3 3         0.0185
##  4 4         0.0185
##  5 5         0.0370
##  6 6         0.0741
##  7 7         0.0556
##  8 8         0.0556
##  9 9         0.0556
## 10 10        0.0370
## #  with 9,990 more rows
…
