Cancer Incidences Borders
…
Results

As you can see from the graphs above, the borders have experienced a slight increase in the number of incidences.

Show Number of Incidences in Borders Over Time for Individual Cancers

## # A tibble: 41 x 2
##    cancer_type                         total_number_of_incidences
##    <chr>                                                    <dbl>
##  1 Non-melanoma skin cancer                                  5741
##  2 Basal cell carcinoma of the skin                          3825
##  3 Breast                                                    2483
##  4 Trachea, bronchus and lung                                2441
##  5 Colorectal cancer                                         2436
##  6 Squamous cell carcinoma of the skin                       1846
##  7 Colon                                                     1616
##  8 Rectum and rectosigmoid junction                           820
##  9 Malignant melanoma of the skin                             706
## 10 Non-Hodgkin lymphoma                                       662
## #  with 31 more rows

Results

As you can see from the table above, Non-melanoma skin cancer has the highest number of recorded incidences.

Show Years that are Below or Above the Average for Borders

## # A tibble: 25 x 8
##    cancer_type sex    year age_group number_of_incid health_board_na
##    <chr>       <chr> <dbl> <chr>                <dbl> <chr>           
##  1 All         All    1994 All                    518 NHS Borders     
##  2 All         All    1995 All                    587 NHS Borders     
##  3 All         All    1996 All                    717 NHS Borders     
##  4 All         All    1997 All                    617 NHS Borders     
##  5 All         All    1998 All                    572 NHS Borders     
##  6 All         All    1999 All                    637 NHS Borders     
##  7 All         All    2000 All                    599 NHS Borders     
##  8 All         All    2001 All                    616 NHS Borders     
##  9 All         All    2002 All                    697 NHS Borders     
## 10 All         All    2003 All                    615 NHS Borders     
## #  with 15 more rows, and 2 more variables:
## #   average_number_of_incideneces <dbl>, above_below_average <chr>
…
